…
    options(scipen = 99)

    source("utils.R")

Loading data
------------

    news_articles <- fromJSON("data/1996_dicts_9_sources.json", simplifyDataFrame = T) %>%
      as.tibble()

    news_articles

    ## # A tibble: 1,996 x 10
    ##    title  url   text   top_words summary source publish_date authors id   
    ##  * <chr>  <chr> <chr>  <list>    <chr>   <chr>  <chr>        <list>  <chr>
    ##  1 Appea… http… "The … <chr [13… "The 1… cnn    2017-05-25   <chr [… 1    
    ##  2 Elon … http… "Tesl… <chr [16… "Tesla… cnn    2017-01-30   <chr [… 2    
    ##  3 Donal… http… "J.P.… <chr [14… "J.P. … cnn    2017-01-30   <chr [… 8    
    ##  4 Donal… http… "The … <chr [14… "Meanw… cnn    2017-02-06   <chr [… 9    
    ##  5 More … http… "Majo… <chr [18… "On Tu… cnn    2017-02-07   <chr [… 10   
    ##  6 Presi… http… "Pres… <chr [14… "Presi… cnn    2017-02-21   <chr [… 12   
    ##  7 Eliza… http… "Know… <chr [12… "“Turn… cnn    2017-03-16   <chr [… 13   
    ##  8 Tech … http… "The … <chr [14… "The i… cnn    2017-01-28   <chr [… 14   
    ##  9 Here'… http… "Afte… <chr [14… "After… cnn    2017-01-28   <chr [… 15   
    ## 10 GE's … http… "Gene… <chr [16… "Gener… cnn    2017-01-29   <chr [… 16   
    ## # ... with 1,986 more rows, and 1 more variable: type <chr>
…
    temporal_delta(nested_articles[1, ]$data[[1]])

    ## # A tibble: 24 x 2
    ##    publish_date delta
    ##    <date>       <dbl>
    ##  1 2017-02-03   0.687
    ##  2 2017-02-04   0.680
    ##  3 2017-02-06   0.634
    ##  4 2017-02-07   0.885
    ##  5 2017-02-09   0.745
    ##  6 2017-02-13   0.668
    ##  7 2017-02-20   0.839
    ##  8 2017-02-23   0.714
    ##  9 2017-03-06   0.625
    ## 10 2017-03-07   0.851
    ## # ... with 14 more rows
…
